{
  "adv" : [
    {
      "img" : "adv-icon-1.png",
      "title" : "сублимация",
      "desc" : "Собственное производство тарелок методом сублимации. Сублимационные тарелки собственного производства"
    },
    {
      "img" : "adv-icon-2.png",
      "title" : "качество",
      "desc" : "В производстве используются тарелки отечественного и/или импортного производителей посуды "
    },
    {
      "img" : "adv-icon-3.png",
      "title" : "гарантия",
      "desc" : "Даем гарантию 1 месяц. В случае обнаружения дефектов мы заменим товар или вернем деньги"
    },
    {
      "img" : "adv-icon-4.png",
      "title" : "скидки",
      "desc" : "Постоянным клиентам и клиентам с крупным объемом заказов предоставляются скидки"
    }
  ]
}
