{
  "layouts" : [
    {
      "type" : "Разрешение предоставляемых изображений не должно составлять менее 300 dpi",
      "class" : "--redlight",
      "title" : "На тарелку 125 мм:",
      "desc" : "Весь макет должен быть размещен в круге диаметром 136 мм.Все значимые изображения или части изображения, надписи, должны быть вписаны в окружность диаметром 116 мм"
    },
    {
      "type" : "Все исходные материалы предоставляются в формате *.psd.",
      "class" : "--orangelight",
      "title" : "На тарелку 200 мм:",
      "desc" : "Весь макет должен быть размещен в круге диаметром 210 мм. Все значимые изображения или части изображения, надписи, должны быть вписаны в окружность диаметром 190 мм."
    },
    {
      "type" : "Слои в файлах формата *.psd - не должны быть слиты!",
      "class" : "--redlight",
      "title" : "На тарелку 300 мм:",
      "desc" : "Весь макет должен быть размещен в круге диаметром 285 мм.Все значимые изображения или части изображения, надписи, должны быть вписаны в окружность диаметром 265 мм."
    }
  ]
}
