{
  "stand" : [
    {
      "img" : "stand-1.jpg",
      "title" : "Прозрачная",
      "diam" : "10см"
    },
    {
      "img" : "stand-2.jpg",
      "title" : "Прозрачная",
      "diam" : "12см"
    },
    {
      "img" : "stand-3.jpg",
      "title" : "Прозрачная",
      "diam" : "18см"
    },
    {
      "img" : "stand-4.jpg",
      "title" : "Белая",
      "diam" : "9см"
    },
    {
      "img" : "stand-5.jpg",
      "title" : "Белая",
      "diam" : "12см"
    }
  ]
}
